<?xml version="1.0" encoding="utf-8"?>
<!-- Generator: Adobe Illustrator 21.0.0, SVG Export Plug-In . SVG Version: 6.00 Build 0)  -->
<svg version="1.1" id="Layer_1" xmlns="http://www.w3.org/2000/svg" xmlns:xlink="http://www.w3.org/1999/xlink" x="0px" y="0px"
	 viewBox="0 0 68.8 543.1" style="enable-background:new 0 0 68.8 543.1;" xml:space="preserve">
<style type="text/css">
	.st0{fill:#FFB808;}
	.st1{fill:#3ED686;}
	.st2{fill:#FF6600;}
	.st3{fill:#20BEE2;}
	.st4{fill:#3C96DA;}
	.st5{fill:#2623A8;}
	.st6{fill:#FFFFFF;stroke:#FFFFFF;stroke-width:0.3373;stroke-miterlimit:10;}
	.st7{fill:#FFFFFF;stroke:#FFFFFF;stroke-width:0.1808;stroke-miterlimit:10;}
	.st8{fill:#FFFFFF;}
	.st9{fill:#FFFFFF;stroke:#FFFFFF;stroke-width:0.6975;stroke-miterlimit:10;}
	.st10{fill:#FFFFFF;stroke:#FFFFFF;stroke-width:0.3487;stroke-miterlimit:10;}
	.st11{fill:#FFFFFF;stroke:#FFFFFF;stroke-width:0.3971;stroke-miterlimit:10;}
	.st12{fill:#FFFFFF;stroke:#FFFFFF;stroke-width:0.1;stroke-miterlimit:10;}
</style>
<path class="st0" d="M34.4,346.7c-0.9,0-1.8,0-2.6-0.1v4.1c0.9,0.1,1.8,0.1,2.6,0.1c19,0,34.4-15.4,34.4-34.4h-4.1
	C64.7,333.2,51.1,346.7,34.4,346.7z"/>
<path class="st1" d="M28.4,346.1c-13.8-2.8-24.3-15-24.3-29.7c0-16.7,13.6-30.3,30.3-30.3c15.4,0,28.1,11.5,30,26.4h4.1
	c-2-17.1-16.5-30.5-34.2-30.5C15.4,282,0,297.4,0,316.4c0,16.9,12.2,31,28.4,33.9V346.1z"/>
<path class="st2" d="M34.4,442.8c-0.9,0-1.8,0-2.6-0.1v4.1c0.9,0.1,1.8,0.1,2.6,0.1c19,0,34.4-15.4,34.4-34.4h-4.1
	C64.7,429.2,51.1,442.8,34.4,442.8z"/>
<path class="st0" d="M28.4,442.2c-13.8-2.8-24.3-15-24.3-29.7c0-16.7,13.6-30.3,30.3-30.3c15.4,0,28.1,11.5,30,26.4h4.1
	c-2-17.1-16.5-30.5-34.2-30.5c-19,0-34.4,15.4-34.4,34.4c0,16.9,12.2,31,28.4,33.9V442.2z"/>
<path class="st1" d="M34.4,250.6c-0.9,0-1.8,0-2.6-0.1v4.1c0.9,0.1,1.8,0.1,2.6,0.1c19,0,34.4-15.4,34.4-34.4h-4.1
	C64.7,237.1,51.1,250.6,34.4,250.6z"/>
<path class="st3" d="M28.4,250c-13.8-2.8-24.3-15-24.3-29.7c0-16.7,13.6-30.3,30.3-30.3c15.4,0,28.1,11.5,30,26.4h4.1
	c-2-17.1-16.5-30.5-34.2-30.5c-19,0-34.4,15.4-34.4,34.4c0,16.9,12.2,31,28.4,33.9V250z"/>
<path class="st3" d="M34.4,157.7c-0.9,0-1.8,0-2.6-0.1v4.1c0.9,0.1,1.8,0.1,2.6,0.1c19,0,34.4-15.4,34.4-34.4h-4.1
	C64.7,144.1,51.1,157.7,34.4,157.7z"/>
<path class="st4" d="M28.4,157.1c-13.8-2.8-24.3-15-24.3-29.7c0-16.7,13.6-30.3,30.3-30.3c15.4,0,28.1,11.5,30,26.4h4.1
	C66.6,106.3,52.1,93,34.4,93C15.4,93,0,108.4,0,127.4c0,16.9,12.2,31,28.4,33.9V157.1z"/>
<rect x="31.8" y="446.4" class="st2" width="5.3" height="28.3"/>
<rect x="31.8" y="350.3" class="st0" width="5.3" height="28.3"/>
<rect x="31.8" y="254.2" class="st1" width="5.3" height="28.3"/>
<rect x="31.8" y="158.1" class="st3" width="5.3" height="28.3"/>
<rect x="31.8" y="65.3" class="st4" width="5.3" height="28.3"/>
<path class="st2" d="M58.1,509.2c0-13.1-10.6-23.7-23.7-23.7s-23.7,10.6-23.7,23.7c0,13.1,10.6,23.7,23.7,23.7
	C47.5,533,58.1,522.3,58.1,509.2z"/>
<g>
	<circle class="st2" cx="34.5" cy="509.2" r="27"/>
</g>
<g>
	<circle class="st4" cx="34.5" cy="127.3" r="27"/>
</g>
<g>
	<circle class="st5" cx="34.5" cy="34.3" r="27"/>
</g>
<g>
	<circle class="st3" cx="34.4" cy="220.5" r="27"/>
</g>
<g>
	<circle class="st1" cx="34.4" cy="316.2" r="27"/>
</g>
<g>
	<circle class="st0" cx="34.4" cy="412.8" r="27"/>
</g>
<g>
	<path class="st6" d="M29.2,43.3c-1,0-1.8,0.8-1.8,1.8c0,0.8,0.5,1.5,1.3,1.7v1.1v1l0.8-0.2v0.2h0.3v-2.2c0.7-0.2,1.3-0.9,1.3-1.7
		C31,44.1,30.2,43.3,29.2,43.3z M29.2,46.2c-0.6,0-1-0.5-1-1s0.5-1,1-1c0.6,0,1,0.5,1,1S29.8,46.2,29.2,46.2z"/>
	<path class="st6" d="M34.6,41.3c-1,0-1.8,0.8-1.8,1.8c0,0.8,0.5,1.5,1.3,1.7v4.5V49h0.8l0,0h0.2v-4.2c0.7-0.2,1.3-0.9,1.3-1.7
		C36.4,42.1,35.5,41.3,34.6,41.3z M34.5,44c-0.6,0-1-0.5-1-1s0.5-1,1-1c0.6,0,1,0.5,1,1S35.1,44,34.5,44z"/>
	<path class="st6" d="M39.8,43.3c-1,0-1.8,0.8-1.8,1.8c0,0.8,0.5,1.5,1.3,1.7v2.5V49h0.8l0,0h0.2v-2.2c0.7-0.2,1.3-0.9,1.3-1.7
		C41.6,44.1,40.8,43.3,39.8,43.3z M39.8,46.2c-0.6,0-1-0.5-1-1s0.5-1,1-1c0.6,0,1,0.5,1,1S40.4,46.2,39.8,46.2z"/>
	<path id="XMLID_1151_" class="st7" d="M29.6,21.8v-2.6v-0.6h2.7c0-1.2,1-2.3,2.3-2.3c1.2,0,2.3,1,2.3,2.3l0,0h2.7v0.6v2.6v0.6h-9.9
		L29.6,21.8z M30.8,21.2h7.6v-1.4h-2.7v-0.6v-0.6c0-0.6-0.5-1.1-1.1-1.1s-1.1,0.5-1.1,1.1v0.6v0.6h-2.7V21.2L30.8,21.2z M48.4,20.6
		V51v1.4H20.7V51V20.6v-1.4h7.4v1.2h-3.7v28.1h20.2V20.4h-3.7v-1.2h7.4L48.4,20.6L48.4,20.6z M47.3,20.6v-0.2h-1.5v28.7v0.6H23.3
		v-0.6V20.4h-1.5v0.2v30.7h25.4v-0.2L47.3,20.6L47.3,20.6z M27.2,26.6c-0.3,0.2-0.4,0.5-0.2,0.8l1.1,1.9c0.1,0.2,0.3,0.3,0.5,0.3
		s0.4-0.1,0.5-0.3l1.9-3.4c0.2-0.3,0.1-0.6-0.2-0.8c-0.3-0.2-0.6-0.1-0.8,0.2l-1.4,2.4l-0.6-1C27.9,26.5,27.5,26.4,27.2,26.6z
		 M30.7,32.9c-0.3-0.2-0.6-0.1-0.8,0.2l-1.4,2.4l-0.6-1c-0.2-0.3-0.5-0.4-0.8-0.2s-0.4,0.5-0.2,0.8L28,37c0.1,0.2,0.3,0.3,0.5,0.3
		s0.4-0.1,0.5-0.3l1.9-3.4C31.1,33.4,31,33.1,30.7,32.9z M42.3,34.2h-9v-1.1h9V34.2z M39.5,37h-6.3v-1.1h6.3V37z M42.3,26.6h-9v-1.1
		h9V26.6z M39.5,29.3h-6.3v-1.1h6.3V29.3z"/>
</g>
<path class="st8" d="M20.6,145.4v-32.3h4.1V109h23.6v32.4h-4.1v4.1L20.6,145.4L20.6,145.4z M40.1,141.3H24.8V127h2.7v3.2
	c-0.9,0.3-1.5,1.1-1.5,2.1c0,1.2,1,2.1,2.1,2.1c1.2,0,2.2-1,2.2-2.1c0-1-0.6-1.8-1.5-2.1V127h3.1v7.3c-0.9,0.3-1.5,1.1-1.5,2.1
	c0,1.2,1,2.1,2.2,2.1s2.1-1,2.1-2.1c0-1-0.6-1.8-1.5-2.1V127h3.1v3.2c-0.9,0.3-1.5,1.1-1.5,2.1c0,1.2,1,2.2,2.1,2.2
	c1.2,0,2.2-1,2.2-2.2c0-1-0.6-1.8-1.5-2.1V127h2.7L40.1,141.3L40.1,141.3z M31.5,136.4c0-0.5,0.4-0.9,0.9-0.9s0.9,0.4,0.9,0.9
	s-0.4,0.9-0.9,0.9C31.9,137.3,31.5,136.9,31.5,136.4L31.5,136.4z M37.6,132.2c0-0.5-0.4-0.9-0.9-0.9s-0.9,0.4-0.9,0.9
	s0.4,0.9,0.9,0.9S37.6,132.7,37.6,132.2L37.6,132.2z M27.2,132.2c0-0.5,0.4-0.9,0.9-0.9s0.9,0.4,0.9,0.9s-0.4,0.9-0.9,0.9
	S27.2,132.7,27.2,132.2L27.2,132.2z M26.3,113.1h17.9v26.7h2.6v-29.4H26.2L26.3,113.1L26.3,113.1z M40.1,125c-5.1,0-10.2,0-15.3,0
	c0-0.4,0-0.8,0-1.3c5.1,0,10.2,0,15.3,0C40.1,124.2,40.1,124.6,40.1,125L40.1,125z M40.1,121.7c-5.1,0-10.2,0-15.3,0
	c0-0.4,0-0.8,0-1.3c5.1,0,10.2,0,15.3,0C40.1,120.9,40.1,121.3,40.1,121.7L40.1,121.7z M40.1,118.5H24.8v-1.3h15.3V118.5L40.1,118.5
	z M22.1,143.9h20.6v-29.3H22.1V143.9z"/>
<path class="st8" d="M30.5,212.4v4.3c0.9,0.3,1.6,1.2,1.6,2.2c0,1.3-1,2.3-2.3,2.3s-2.3-1-2.3-2.3c0-1,0.7-1.9,1.6-2.2v-3.2h-9.7
	l0,0h-2.2v-8.8h34.3v8.8h-0.6h-1.6h-9.7v3.2c0.9,0.3,1.6,1.2,1.6,2.2c0,1.3-1,2.3-2.3,2.3s-2.3-1-2.3-2.3c0-1,0.7-1.9,1.6-2.2v-4.3
	h11.5v-5.9H18.9v5.9h11.2H30.5L30.5,212.4z M17.2,232h13.9v2.6h-4.8v1.8h16.2v-1.8h-4.8V232h13.9v-17.1h-1.8V228H19v-13.1h-1.8
	L17.2,232L17.2,232z M33.4,230.6c0-0.5,0.4-0.9,0.9-0.9s0.9,0.4,0.9,0.9s-0.4,0.9-0.9,0.9C33.9,231.6,33.4,231.1,33.4,230.6
	L33.4,230.6z M35.1,212.4v8.8c0.9,0.3,1.6,1.2,1.6,2.2c0,1.3-1,2.3-2.3,2.3s-2.3-1-2.3-2.3c0-1,0.7-1.9,1.6-2.2v-8.8H35.1
	L35.1,212.4z M33.4,223.3c0-0.5,0.4-0.9,0.9-0.9s0.9,0.4,0.9,0.9s-0.4,0.9-0.9,0.9C33.9,224.3,33.4,223.9,33.4,223.3L33.4,223.3z
	 M39.9,218.9c0-0.5-0.4-0.9-0.9-0.9s-0.9,0.4-0.9,0.9s0.4,0.9,0.9,0.9C39.5,219.9,39.9,219.4,39.9,218.9L39.9,218.9z M28.9,218.9
	c0-0.5,0.4-0.9,0.9-0.9s0.9,0.4,0.9,0.9s-0.4,0.9-0.9,0.9C29.3,219.9,28.9,219.4,28.9,218.9L28.9,218.9z"/>
<g>
	<g>
		<rect x="26.8" y="302.8" class="st8" width="1" height="1"/>
		<path class="st8" d="M19.8,300.2v6h20.9v-6H19.8z M24.7,304.7h-2.8v-2.8h2.8V304.7z M28.7,304.7h-2.8v-2.8h2.8V304.7z M32.7,304.7
			h-2.8v-2.8h2.8V304.7z"/>
		<rect x="30.8" y="302.8" class="st8" width="1" height="1"/>
		<rect x="22.7" y="302.8" class="st8" width="1" height="1"/>
	</g>
	<rect x="19.6" y="300.2" class="st8" width="1.6" height="32.1"/>
	<rect x="47.6" y="300.2" class="st8" width="1.6" height="32.1"/>
	<rect x="19.6" y="330.6" class="st8" width="29.6" height="1.6"/>
	<rect x="34.8" y="300.2" class="st8" width="14.3" height="6"/>
	<g>
		<path class="st8" d="M35,322.3v-7.1h-1.4v7.1c-0.9,0.3-1.6,1.2-1.6,2.2c0,1.3,1,2.3,2.3,2.3s2.3-1,2.3-2.3
			C36.6,323.5,35.9,322.6,35,322.3z M34.3,325.5c-0.5,0-1-0.4-1-1c0-0.5,0.4-1,1-1c0.5,0,1,0.4,1,1C35.3,325,34.9,325.5,34.3,325.5z
			"/>
		<path class="st8" d="M40.2,318.9v-3.7h-1.3v3.7c-0.9,0.3-1.6,1.2-1.6,2.2c0,1.3,1,2.3,2.3,2.3s2.3-1,2.3-2.3
			C41.8,320.1,41.1,319.2,40.2,318.9z M39.5,322.1c-0.5,0-1-0.4-1-1c0-0.5,0.4-1,1-1c0.5,0,1,0.4,1,1
			C40.5,321.6,40,322.1,39.5,322.1z"/>
		<path class="st8" d="M30,318.9v-3.7h-1.4v3.7c-0.9,0.3-1.6,1.2-1.6,2.2c0,1.3,1,2.3,2.3,2.3s2.3-1,2.3-2.3
			C31.6,320.1,30.9,319.2,30,318.9z M29.3,322.1c-0.5,0-1-0.4-1-1c0-0.5,0.4-1,1-1c0.5,0,1,0.4,1,1
			C30.3,321.6,29.8,322.1,29.3,322.1z"/>
	</g>
	<rect x="39.4" y="315.1" class="st8" width="8.5" height="1.4"/>
	<rect x="20.5" y="315.1" class="st8" width="8.5" height="1.4"/>
</g>
<g>
	<g>
		<path class="st9" d="M27,429.5l2.9-5.8l-0.5-0.2l-2.9,5.8c-0.8-0.2-1.6,0.1-2,0.8c-0.4,0.8-0.1,1.8,0.8,2.2
			c0.8,0.4,1.8,0.1,2.2-0.8C27.9,430.9,27.6,430,27,429.5z M25.6,431.9c-0.6-0.3-0.8-1-0.5-1.5c0.3-0.6,1-0.8,1.5-0.5s0.8,1,0.5,1.5
			C26.7,431.9,26.1,432.2,25.6,431.9z"/>
		<path class="st9" d="M31.9,427.9l1.2-2.5l-0.5-0.2l-1.2,2.5c-0.8-0.2-1.6,0.1-2,0.8c-0.4,0.8-0.1,1.8,0.8,2.2
			c0.8,0.4,1.8,0.1,2.2-0.8C32.7,429.2,32.6,428.3,31.9,427.9z M30.4,430.2c-0.6-0.3-0.8-1-0.5-1.5c0.3-0.6,1-0.8,1.5-0.5
			c0.6,0.3,0.8,1,0.5,1.5C31.6,430.3,31,430.5,30.4,430.2z"/>
		<path class="st9" d="M25.4,424.6l1.2-2.5l-0.5-0.2l-1.2,2.5c-0.8-0.2-1.6,0.1-2,0.8c-0.4,0.8-0.1,1.8,0.8,2.2
			c0.8,0.4,1.8,0.1,2.2-0.8C26.2,426,26.1,425.1,25.4,424.6z M24,427c-0.6-0.3-0.8-1-0.5-1.5c0.3-0.6,1-0.8,1.5-0.5
			c0.6,0.3,0.8,1,0.5,1.5C25.1,427.1,24.5,427.3,24,427z"/>
	</g>
	<g>
		<path class="st10" d="M44.2,410.4L44.2,410.4L44.2,410.4z"/>
		<path class="st10" d="M38.9,414.3c1-2,0.2-4.5-1.9-5.5c-2-1-4.5-0.2-5.5,1.9c-1,2-0.2,4.5,1.9,5.5
			C35.4,417.2,37.9,416.3,38.9,414.3z M32.2,411c0.8-1.6,2.8-2.3,4.4-1.5c1.6,0.8,2.3,2.8,1.5,4.4s-2.8,2.3-4.4,1.5
			S31.5,412.6,32.2,411z"/>
		<path class="st10" d="M37.5,413.6c0.3-0.7,0.4-1.5,0-2.2c-0.1-0.2-0.4-0.3-0.6-0.2c-0.2,0.1-0.3,0.4-0.2,0.6c0.2,0.5,0.2,1,0,1.5
			c-0.4,0.8-1.4,1.2-2.2,0.8c-0.3-0.1-0.5-0.3-0.6-0.6c-0.1-0.2-0.4-0.3-0.6-0.1c-0.2,0.1-0.3,0.4-0.1,0.6c0.2,0.4,0.6,0.7,1,0.8
			C35.2,415.3,36.9,414.8,37.5,413.6z"/>
		<path class="st10" d="M42.5,413.7c0.7-1.1,1.3-2.2,1.8-3.3c1.6-3.2,1.7-5,2-8.2c0-0.4,0.1-0.8,0.1-1.2c0-0.1-0.1-0.3-0.1-0.3
			c-0.1,0-0.1-0.1-0.3-0.2l0,0c0-4-0.6-6.5-0.8-7.1c-0.1-0.2-0.3-0.3-0.5-0.3c-0.7,0.2-3,1.2-6.2,3.7l0,0l0,0
			c-0.2-0.1-0.3-0.1-0.3-0.1c-0.1,0-0.3,0-0.4,0.1c-0.3,0.3-0.6,0.5-0.9,0.8c-2.4,2.2-3.7,3.4-5.4,6.6c-0.6,1.1-1.1,2.2-1.5,3.4
			c-1.1,0.3-5.7,1.6-7.3,5.6c-0.1,0.2,0,0.4,0.2,0.5l0.5,0.2c0.1,0.1,0.2,0.1,0.3,0c0.8-0.3,3.2-0.9,4.5-0.3
			c-0.2,0.9-0.4,1.8-0.5,2.7c-0.1,0.5-0.2,1.1-0.2,1.6c0,0.2,0.1,0.4,0.2,0.4l7.6,3.8c0.2,0.1,0.4,0.1,0.5-0.1
			c0.4-0.4,0.8-0.8,1.1-1.1c0.7-0.7,1.3-1.4,1.9-2c1.3,0.7,2.2,2.9,2.5,3.8c0,0.1,0.1,0.2,0.2,0.3l0.5,0.2c0.2,0.1,0.4,0,0.6-0.2
			C44.6,419.2,42.9,414.7,42.5,413.7z M23.5,412.9c1.3-2.8,4.5-4,5.9-4.5c0,0.1,0,0.1-0.1,0.2c-0.4,1.3-0.8,2.6-1.1,4
			C26.6,412,24.2,412.6,23.5,412.9z M36.1,420.2c-0.3,0.3-0.6,0.6-0.9,0.9l-7.1-3.5c0.1-0.4,0.1-0.8,0.2-1.3c0.4-2.6,1-5.1,1.8-7.4
			c0.5-1.6,1.2-3.1,1.9-4.5c1.6-3.1,2.8-4.2,5.2-6.3c0.2-0.2,0.4-0.4,0.6-0.6l0,0c0.2,0.1,0.2,0.1,0.3,0.1l3.9,2
			c0.2,0.1,0.5,0,0.6-0.2s0-0.5-0.2-0.6l-3.3-1.7c2.4-1.8,4.3-2.8,5.2-3.1c0.3,1,0.7,3.3,0.6,6.6c0,0.1,0.1,0.3,0.2,0.3
			c0,0,0.1,0.1,0.3,0.2l0,0c0,0.3,0,0.6-0.1,0.9c-0.3,3.2-0.4,4.8-1.9,7.9l0,0c-0.7,1.4-1.5,2.9-2.5,4.3
			C39.6,416.3,38.1,418.3,36.1,420.2z M39.2,418.1c0.9-1.1,1.7-2.2,2.5-3.3c0-0.1,0.1-0.1,0.1-0.2c0.5,1.4,1.4,4.7,0,7.4
			C41.6,421.2,40.7,419,39.2,418.1z"/>
		<path class="st11" d="M33.1,421.9l-4.2-2.1c-0.3-0.1-0.6-0.1-0.7,0.1c-0.1,0.2,0,0.5,0.3,0.6l4.2,2.1c0.3,0.1,0.6,0.1,0.7-0.1
			C33.6,422.3,33.5,422,33.1,421.9z"/>
		<g>
			<path class="st10" d="M36.9,401.2c-0.2-0.1-0.5,0-0.6,0.2l-1.8,3.6c-0.1,0.2,0,0.5,0.2,0.6c0.2,0.1,0.5,0,0.6-0.2l1.8-3.6
				C37.1,401.5,37.1,401.3,36.9,401.2z"/>
			<path class="st10" d="M38.7,403.1l0.4,0.2c0.2,0.1,0.3,0.3,0.2,0.5c-0.1,0.2,0,0.5,0.2,0.6s0.5,0,0.6-0.2
				c0.3-0.6,0.1-1.4-0.6-1.7l-0.4-0.2c-0.6-0.3-1.4-0.1-1.7,0.6l-1.1,2.1c-0.3,0.6-0.1,1.4,0.6,1.7l0.4,0.2c0.6,0.3,1.4,0.1,1.7-0.6
				c0.1-0.2,0-0.5-0.2-0.6c-0.2-0.1-0.5,0-0.6,0.2s-0.3,0.3-0.5,0.2l-0.4-0.2c-0.2-0.1-0.3-0.3-0.2-0.5l1.1-2.1
				C38.4,403.1,38.6,403,38.7,403.1z"/>
			<path class="st10" d="M42.9,404.1l-0.4-0.2c-0.6-0.3-1.4-0.1-1.7,0.6l-1.1,2.1c-0.3,0.6-0.1,1.4,0.6,1.7l0.4,0.2
				c0.6,0.3,1.4,0.1,1.7-0.6l1.1-2.1C43.7,405.2,43.5,404.4,42.9,404.1z M41.6,407.5c-0.1,0.2-0.3,0.3-0.5,0.2l-0.4-0.2
				c-0.2-0.1-0.3-0.3-0.2-0.5l1.1-2.1c0.1-0.2,0.3-0.3,0.5-0.2l0.4,0.2c0.2,0.1,0.3,0.3,0.2,0.5L41.6,407.5z"/>
		</g>
	</g>
</g>
<g>
	<g>
		<g>
			<path class="st12" d="M45.1,493.2H20.5h-2v18v2h10.7v-1.3h-9.3v-0.7v-16v-0.7h24v0.7v12h1.3v-12v-2H45.1z"/>
		</g>
	</g>
	<g>
		<g>
			<rect x="26.4" y="512.5" class="st12" width="1.3" height="4"/>
		</g>
	</g>
	<g>
		<g>
			<path class="st12" d="M22.4,509.2v-0.7v-1.3h-1.3v1.3v2h3.3v-1.3H22.4z"/>
		</g>
	</g>
	<g>
		<g>
			<rect x="21.1" y="504.6" class="st12" width="1.3" height="1.3"/>
		</g>
	</g>
	<g>
		<g>
			<path class="st12" d="M42.8,507.3c-1.4-1.4-3.2-2.1-5.1-2.1c-4,0-7.2,3.2-7.2,7.2c0,4,3.2,7.2,7.2,7.2c1.9,0,3.8-0.8,5.1-2.1
				C45.6,514.7,45.6,510.2,42.8,507.3z M37.7,518.4c-3.3,0-5.9-2.6-5.9-5.9c0-3.3,2.6-5.9,5.9-5.9c1.6,0,3.1,0.6,4.2,1.7
				s1.7,2.6,1.7,4.2C43.6,515.7,40.9,518.4,37.7,518.4z"/>
		</g>
	</g>
	<g>
		<g>
			<path class="st12" d="M50.2,522.2L46,518c-0.1-0.1-0.3-0.2-0.5-0.2s-0.3,0.1-0.5,0.2l-1.9,1.9c-0.3,0.3-0.3,0.7,0,0.9l4.2,4.2
				c0.1,0.1,0.3,0.2,0.5,0.2l0,0c0.2,0,0.3-0.1,0.5-0.2l1.9-1.9C50.5,522.9,50.5,522.5,50.2,522.2z M47.9,523.6l-3.2-3.2l0.9-0.9
				l3.2,3.2L47.9,523.6z"/>
		</g>
	</g>
	<g>
		<g>
			
				<rect x="42.8" y="516.6" transform="matrix(0.7071 -0.7071 0.7071 0.7071 -353.7381 182.5476)" class="st12" width="1.3" height="3.3"/>
		</g>
	</g>
	<g>
		<g>
			<path class="st12" d="M37.8,507.9v1.3c1.8,0,3.3,1.5,3.3,3.3h1.3C42.4,510,40.3,507.9,37.8,507.9z"/>
		</g>
	</g>
	<g>
		<g>
			<rect x="25.1" y="515.9" class="st12" width="5.3" height="1.3"/>
		</g>
	</g>
	<g>
		<g>
			<path class="st12" d="M28.4,495.9c-1.1,0-2,0.9-2,2s0.9,2,2,2s2-0.9,2-2S29.5,495.9,28.4,495.9z M28.4,498.6
				c-0.4,0-0.7-0.3-0.7-0.7s0.3-0.7,0.7-0.7c0.4,0,0.7,0.3,0.7,0.7C29.1,498.3,28.8,498.6,28.4,498.6z"/>
		</g>
	</g>
	<g>
		<g>
			<path class="st12" d="M33.1,500.6c-1.1,0-2,0.9-2,2c0,1.1,0.9,2,2,2s2-0.9,2-2C35.1,501.4,34.2,500.6,33.1,500.6z M33.1,503.2
				c-0.4,0-0.7-0.3-0.7-0.7c0-0.4,0.3-0.7,0.7-0.7c0.4,0,0.7,0.3,0.7,0.7C33.8,502.9,33.5,503.2,33.1,503.2z"/>
		</g>
	</g>
	<g>
		<g>
			
				<rect x="23.8" y="499.6" transform="matrix(0.7071 -0.7071 0.7071 0.7071 -346.0274 165.0285)" class="st12" width="4.7" height="1.3"/>
		</g>
	</g>
	<g>
		<g>
			
				<rect x="30.2" y="497.9" transform="matrix(0.7071 -0.7071 0.7071 0.7071 -344.706 168.3056)" class="st12" width="1.3" height="4.7"/>
		</g>
	</g>
	<g>
		<g>
			<path class="st12" d="M37.8,495.9c-1.1,0-2,0.9-2,2s0.9,2,2,2s2-0.9,2-2S38.9,495.9,37.8,495.9z M37.8,498.6
				c-0.4,0-0.7-0.3-0.7-0.7s0.3-0.7,0.7-0.7c0.4,0,0.7,0.3,0.7,0.7C38.4,498.3,38.1,498.6,37.8,498.6z"/>
		</g>
	</g>
	<g>
		<g>
			
				<rect x="33.1" y="499.6" transform="matrix(0.7071 -0.7071 0.7071 0.7071 -343.3156 171.6146)" class="st12" width="4.7" height="1.3"/>
		</g>
	</g>
</g>
<g>
	<path class="st2" d="M64.8,509.2c0,16.8-13.6,30.4-30.4,30.4S4,526,4,509.2s13.6-30.4,30.4-30.4S64.8,492.5,64.8,509.2 M68.8,509.2
		c0-19-15.4-34.4-34.4-34.4S0,490.2,0,509.2s15.4,34.4,34.4,34.4S68.8,528.2,68.8,509.2L68.8,509.2z"/>
</g>
<path class="st4" d="M34.4,64.8c-0.9,0-1.8,0-2.6-0.1v4.1c0.9,0.1,1.8,0.1,2.6,0.1c19,0,34.4-15.4,34.4-34.4h-4.1
	C64.7,51.2,51.1,64.8,34.4,64.8z"/>
<path class="st5" d="M28.4,64.2c-13.8-2.8-24.3-15-24.3-29.7c0-16.7,13.6-30.3,30.3-30.3c15.4,0,28.1,11.5,30,26.4h4.1
	c-2-17.1-16.5-30.5-34.2-30.5C15.4,0.1,0,15.5,0,34.5c0,16.9,12.2,31,28.4,33.9V64.2z"/>
</svg>
