<svg version="1.1" xmlns="http://www.w3.org/2000/svg" xmlns:xlink="http://www.w3.org/1999/xlink" x="0px"
  y="0px" viewBox="0 0 827.9 641.9" style="enable-background:new 0 0 827.9 641.9;" xml:space="preserve">
  <style type="text/css">
    .st0 {
      fill: none;
      stroke: #00CCFF;
      stroke-width: 3.4502;
      stroke-linecap: round;
      stroke-linejoin: round;
      stroke-miterlimit: 10;
    }
    .st3 {
      fill: #00CCFF;
    }
  </style>
  <switch>
    <g>
      <g>
        <polyline class="st0" points="636.5,640.1 379.4,413.1 156.5,436.2 42.2,177.7 218.2,22.4" />
        <polyline class="st0" points="156.5,436.2 309.8,242.9 42.2,177.7" />
        <polyline class="st0" points="218.2,22.4 309.8,242.9 579.9,108.6 379.4,413.1 309.8,242.9 342.9,1.7 218.2,22.4" />
        <polyline class="st0" points="826.2,219.8 379.4,413.1 720.1,454.9 588.7,322.6 579.9,108.6" />
      </g>
      <g>
        <ellipse transform="matrix(0.4113 -0.9115 0.9115 0.4113 -137.7106 143.1886)" class="st3" cx="42" cy="178.2"
          rx="42" ry="42" fill-opacity="0.15" />
        <ellipse transform="matrix(0.4113 -0.9115 0.9115 0.4113 -137.7106 143.1886)" class="st3" cx="42" cy="178.2"
          rx="13.2" ry="13.2" />
      </g>
      <g>
        <ellipse transform="matrix(0.4113 -0.9115 0.9115 0.4113 -305.6896 397.7192)" class="st3" cx="155" cy="435.5"
          rx="42" ry="42" fill-opacity="0.15" />
        <ellipse transform="matrix(0.4113 -0.9115 0.9115 0.4113 -305.6896 397.7193)" class="st3" cx="155" cy="435.5"
          rx="13.2" ry="13.2" />
      </g>
      <g>
        <ellipse transform="matrix(0.4113 -0.9115 0.9115 0.4113 -153.1661 589.0648)" class="st3" cx="379.4" cy="413.1"
          rx="42" ry="42" fill-opacity="0.15" />
        <ellipse transform="matrix(0.4113 -0.9115 0.9115 0.4113 -153.166 589.0648)" class="st3" cx="379.4" cy="413.1"
          rx="13.2" ry="13.2" />
      </g>
      <g>
        <ellipse transform="matrix(0.4113 -0.9115 0.9115 0.4113 52.3132 725.6245)" class="st3" cx="587.9" cy="322.3"
          rx="42" ry="42" fill-opacity="0.15" />
        <ellipse transform="matrix(0.4113 -0.9115 0.9115 0.4113 52.3133 725.6246)" class="st3" cx="587.9" cy="322.3"
          rx="13.2" ry="13.2" />
      </g>
      <g>
        <ellipse id="atom-1" transform="matrix(0.9283 -0.3718 0.3718 0.9283 -67.7093 132.5424)" class="st3" cx="309.8"
          cy="241.8" rx="60" ry="60" fill-opacity="0.15" />
        <ellipse transform="matrix(0.9283 -0.3718 0.3718 0.9283 -67.7093 132.5424)" class="st3" cx="309.8" cy="241.8"
          rx="18.7" ry="18.7" />
      </g>
    </g>
  </switch>
</svg>